"0","# libraries"
"0","library(readxl)"
"0","library(magrittr)"
"0","library(dplyr)"
"0","library(ggplot2)"
"0","library(ggtern)"
"0","library(ggthemes)"
"0","library(ggrepel)"
"0","library(plotly)"
"0","library(kableExtra)"
"0","library(htmlwidgets)"
"0","library(DT)"
"0","library(crosstalk)"
